[
  {
    "gbpUsd": [
      {"y": 0.6, "name": "16:20", "usedCurrency": "GBP/USD", "userName": "Vasiliy P", "lost": "Lost $130", "bg": "#0e92e0", "marker": {"symbol": "url(http://di3.click/sites/xxxxx/img/lang/blueUser.png)"}},
      {"y": 0.59, "name": "16:20", "usedCurrency": "GBP/USD", "userName": "Vasiliy G", "lost": "Lost $130", "bg": "#0e92e0", "marker": {"symbol": "url(http://di3.click/sites/xxxxx/img/lang/blueUser.png)"}},
      {"y": 0.55, "name": "18:20", "usedCurrency": "GBP/USD", "userName": "Vitalya L", "won": "Won $1630", "bg": "#0e92e0", "marker": {"symbol": "url(http://di3.click/sites/xxxxx/img/lang/blueUser.png)"}},
      {"y": 0.4, "name": "22:20", "usedCurrency": "GBP/USD", "userName": "Kamwot G", "lost": "Lost $130", "bg": "#84b63d", "marker": {"symbol": "url(http://di3.click/sites/xxxxx/img/lang/greenUser.png)"}},
      {"y": 0.55, "name": "18:20", "usedCurrency": "GBP/USD", "userName": "Griwa G", "won": "Won $1630", "bg": "#0e92e0", "marker": {"symbol": "url(http://di3.click/sites/xxxxx/img/lang/blueUser.png)"}},
      {"y": 0.4, "name": "18:20", "usedCurrency": "GBP/USD", "userName": "Griwa G", "lost": "Lost $130", "bg": "#0e92e0", "marker": {"symbol": "url(http://di3.click/sites/xxxxx/img/lang/blueUser.png)"}},
      {"y": 0.2, "name": "18:20", "usedCurrency": "GBP/USD", "userName": "Awot G", "lost": "Lost $130", "bg": "#d8011f", "marker": {"symbol": "url(http://di3.click/sites/xxxxx/img/lang/redUser.png)"}},
      {"y": 0.4, "name": "11:20", "usedCurrency": "GBP/USD", "userName": "Kamwot G", "lost": "Lost $130", "bg": "#84b63d", "marker": {"symbol": "url(http://di3.click/sites/xxxxx/img/lang/greenUser.png)"}},
      {"y": 0.49, "name": "18:20", "usedCurrency": "GBP/USD", "userName": "Vasiliy G", "won": "Won $1630", "bg": "#0e92e0", "marker": {"symbol": "url(http://di3.click/sites/xxxxx/img/lang/blueUser.png)"}},
      {"y": 0.45, "name": "18:20", "usedCurrency": "GBP/USD", "userName": "Griwa G", "won": "Won $1630", "bg": "#0e92e0",  "marker": {"symbol": "url(http://di3.click/sites/xxxxx/img/lang/blueUser.png)"}}
    ],
    "usdEur": [
      {"y": 0.2, "name": "16:20", "usedCurrency": "GBP/USD", "userName": "Vasiliy P", "lost": "Lost $130", "bg": "#0e92e0", "marker": {"symbol": "url(http://di3.click/sites/xxxxx/img/lang/blueUser.png)"}},
      {"y": 0.22, "name": "16:20", "usedCurrency": "GBP/USD", "userName": "Vasiliy G", "lost": "Lost $130", "bg": "#0e92e0", "marker": {"symbol": "url(http://di3.click/sites/xxxxx/img/lang/blueUser.png)"}},
      {"y": 0.23, "name": "18:20", "usedCurrency": "GBP/USD", "userName": "Vitalya L", "won": "Won $1630", "bg": "#0e92e0", "marker": {"symbol": "url(http://di3.click/sites/xxxxx/img/lang/blueUser.png)"}},
      {"y": 0.3, "name": "18:20", "usedCurrency": "GBP/USD", "userName": "Griwa G", "won": "Won $1630", "bg": "#0e92e0", "marker": {"symbol": "url(http://di3.click/sites/xxxxx/img/lang/blueUser.png)"}},
      {"y": 0.4, "name": "18:20", "usedCurrency": "GBP/USD", "userName": "Griwa G", "lost": "Lost $130", "bg": "#0e92e0", "marker": {"symbol": "url(http://di3.click/sites/xxxxx/img/lang/blueUser.png)"}},
      {"y": 0.2, "name": "18:20", "usedCurrency": "GBP/USD", "userName": "Awot G", "lost": "Lost $130", "bg": "#d8011f", "marker": {"symbol": "url(http://di3.click/sites/xxxxx/img/lang/redUser.png)"}},
      {"y": 0.4, "name": "11:20", "usedCurrency": "GBP/USD", "userName": "Kamwot G", "lost": "Lost $130", "bg": "#84b63d", "marker": {"symbol": "url(http://di3.click/sites/xxxxx/img/lang/greenUser.png)"}},
      {"y": 0.29, "name": "18:20", "usedCurrency": "GBP/USD", "userName": "Vasiliy G", "won": "Won $1630", "bg": "#0e92e0", "marker": {"symbol": "url(http://di3.click/sites/xxxxx/img/lang/blueUser.png)"}},
      {"y": 0.25, "name": "18:20", "usedCurrency": "GBP/USD", "userName": "Griwa G", "won": "Won $1630", "bg": "#0e92e0",  "marker": {"symbol": "url(http://di3.click/sites/xxxxx/img/lang/blueUser.png)"}}
    ]
  }
]